<?xml version="1.0" encoding="UTF-8"?>
<svg width="20px" height="94px" viewBox="0 0 20 94" version="1.1" xmlns="http://www.w3.org/2000/svg" xmlns:xlink="http://www.w3.org/1999/xlink">
    <!-- Generator: Sketch 53.2 (72643) - https://sketchapp.com -->
    <title>Combined Shape</title>
    <desc>Created with Sketch.</desc>
    <g id="Page-1" stroke="none" stroke-width="1" fill="none" fill-rule="evenodd">
        <g id="Desktop-HD" transform="translate(-153.000000, -272.000000)" fill="#FFFFFF">
            <path d="M158,319 L155.5,366 L153,319 L155.5,272 L158,319 Z M163,319 L160.5,352 L158,319 L160.5,286 L163,319 Z M173,319 L170.5,352 L168,319 L170.5,286 L173,319 Z M168,319 L165.5,347 L163,319 L165.5,291 L168,319 Z" id="Combined-Shape"></path>
        </g>
    </g>
</svg>